<?xml version="1.0" encoding="utf-8"?>
<!-- Generator: Adobe Illustrator 23.0.1, SVG Export Plug-In . SVG Version: 6.00 Build 0)  -->
<svg version="1.1" id="Layer_1" xmlns="http://www.w3.org/2000/svg" xmlns:xlink="http://www.w3.org/1999/xlink" x="0px" y="0px"
	 width="27px" height="22px" viewBox="0 0 27 22" style="enable-background:new 0 0 27 22;" xml:space="preserve">
<style type="text/css">
	.st0{fill:#C7C7C7;}
</style>
<title>6958A1BD-59B8-496C-9F2E-E57D4577ED81@2x</title>
<desc>Created with sketchtool.</desc>
<g>
	<g transform="translate(-545.000000, -257.000000)">
		<g id="Group-4" transform="translate(544.000000, 257.000000)">
			<g id="Group">
				<g id="AcademicIcn">
					<g id="Vector" transform="translate(0.583333, 0.453968)">
						<path id="Shape" class="st0" d="M26.1,6.5c0,0,0.1,0.1,0.1,0.1c0,0,0,0,0,0c0,0.1,0.1,0.2,0.1,0.2c0,0.1,0,0.2-0.1,0.2
							c0,0,0,0,0,0c0,0.1-0.1,0.1-0.1,0.1c-0.1,0-0.1,0.1-0.2,0.1l-12.2,5.8c-0.2,0.1-0.4,0.1-0.6,0L0.8,7.4c-0.5-0.2-0.5-0.9,0-1.1
							l12.3-5.8c0.2-0.1,0.4-0.1,0.6,0L26,6.3C26,6.4,26.1,6.4,26.1,6.5z M24.2,6.9L13.4,1.8L2.6,6.9L13.4,12L24.2,6.9z"/>
						<path class="st0" d="M24.3,7c0-0.3,0.3-0.6,0.7-0.6s0.7,0.3,0.7,0.6v8.8c0,0.3-0.3,0.6-0.7,0.6s-0.7-0.3-0.7-0.6V7z"/>
						<path class="st0" d="M22,18c0,0.3-0.3,0.6-0.7,0.6s-0.7-0.3-0.7-0.6V9.2c0-0.3,0.3-0.6,0.7-0.6S22,8.9,22,9.2V18z"/>
						<path class="st0" d="M4.8,9.2c0-0.3,0.3-0.6,0.7-0.6c0.4,0,0.7,0.3,0.7,0.6V18c0,0.3-0.3,0.6-0.7,0.6c-0.4,0-0.7-0.3-0.7-0.6
							V9.2z"/>
						<path class="st0" d="M5.1,18.5c-0.3-0.2-0.4-0.6-0.1-0.9s0.7-0.3,1-0.1c0,0,0,0,0,0c0,0,0.1,0,0.1,0.1
							c0.1,0.1,0.2,0.1,0.4,0.2c0.4,0.2,1,0.5,1.5,0.7c1.7,0.7,3.5,1.1,5.5,1.1s3.8-0.4,5.5-1.1c0.6-0.2,1.1-0.5,1.5-0.7
							c0.2-0.1,0.3-0.2,0.4-0.2c0,0,0.1,0,0.1-0.1c0,0,0,0,0,0c0.3-0.2,0.7-0.2,1,0.1s0.2,0.7-0.1,0.9c0,0-0.1,0.1-0.2,0.1
							c-0.1,0.1-0.3,0.2-0.5,0.3c-0.5,0.3-1.1,0.5-1.7,0.8c-1.8,0.7-3.8,1.2-6,1.2s-4.2-0.4-6-1.2c-0.6-0.3-1.2-0.5-1.7-0.8
							c-0.2-0.1-0.3-0.2-0.5-0.3C5.2,18.6,5.1,18.5,5.1,18.5z"/>
						<path id="Oval" class="st0" d="M25,17.4c-0.9,0-1.7-0.7-1.7-1.5c0-0.8,0.8-1.5,1.7-1.5s1.7,0.7,1.7,1.5
							C26.7,16.7,25.9,17.4,25,17.4z M25,16.2c0.2,0,0.3-0.1,0.3-0.3c0-0.2-0.2-0.3-0.3-0.3c-0.2,0-0.3,0.1-0.3,0.3
							C24.6,16,24.8,16.2,25,16.2z"/>
					</g>
				</g>
			</g>
		</g>
	</g>
</g>
</svg>
