<?xml version="1.0" standalone="no"?>
<!DOCTYPE svg PUBLIC "-//W3C//DTD SVG 1.1//EN" "http://www.w3.org/Graphics/SVG/1.1/DTD/svg11.dtd" >
<svg xmlns="http://www.w3.org/2000/svg">
<metadata>Generated by IcoMoon</metadata>
<defs>
<font id="icomoon" horiz-adv-x="1024">
<font-face units-per-em="1024" ascent="960" descent="-64" />
<missing-glyph horiz-adv-x="1024" />
<glyph unicode="&#x20;" horiz-adv-x="512" d="" />
<glyph unicode="&#xe900;" glyph-name="icon-alltest" d="M86.869 627.371v-602.112h602.112v602.112h-602.112zM66.389 676.523h647.168c16.384 0 28.672-12.288 28.672-28.672v-647.168c0-16.384-12.288-28.672-28.672-28.672h-647.168c-16.384 0-28.672 12.288-28.672 28.672v647.168c0 16.384 12.288 28.672 28.672 28.672zM332.629 873.131v-98.304c0-12.288-12.288-24.576-24.576-24.576s-24.576 8.192-24.576 24.576v118.784c0 16.384 12.288 28.672 28.672 28.672h647.168c16.384 0 28.672-12.288 28.672-28.672v-647.168c0-16.384-12.288-28.672-28.672-28.672h-118.784c-12.288 0-24.576 12.288-24.576 24.576s12.288 24.576 24.576 24.576h98.304v606.208h-606.208z" />
<glyph unicode="&#xe901;" glyph-name="icon-usergroup" horiz-adv-x="1536" d="M1183.289 300.089c22.756-11.378 34.133-28.444 34.133-56.889v-250.311c0-17.067-5.689-28.444-17.067-45.511s-22.756-11.378-39.822-11.378h-819.2c-17.067 0-28.444 5.689-34.133 17.067-11.378 11.378-17.067 28.444-17.067 45.511v250.311c0 28.444 11.378 45.511 34.133 56.889l227.556 102.4 96.711 39.822c-45.511 22.756-79.644 62.578-96.711 108.089-22.756 39.822-34.133 85.333-34.133 130.844 0 17.067 0 28.444 5.689 39.822 0 11.378 5.689 28.444 5.689 39.822 17.067 56.889 45.511 102.4 85.333 136.533s85.333 56.889 142.222 56.889c56.889 0 102.4-17.067 142.222-56.889s68.267-85.333 85.333-142.222c5.689-28.444 5.689-51.2 5.689-73.956 0-45.511-11.378-85.333-28.444-125.156-22.756-51.2-56.889-85.333-96.711-113.778l96.711-45.511 221.867-102.4zM290.133 368.356c-22.756-11.378-45.511-28.444-56.889-51.2s-22.756-45.511-22.756-73.956v-210.489h-170.667c-11.378 0-22.756 5.689-28.444 11.378-5.689 11.378-11.378 22.756-11.378 39.822v199.111c0 22.756 11.378 39.822 28.444 45.511l256 119.467c-28.444 17.067-56.889 45.511-73.956 79.644s-28.444 73.956-28.444 113.778c0 28.444 5.689 56.889 17.067 85.333s22.756 51.2 39.822 68.267c17.067 22.756 34.133 39.822 56.889 51.2s45.511 17.067 73.956 17.067c17.067 0 34.133 0 51.2-5.689s34.133-17.067 45.511-28.444c-17.067-45.511-28.444-91.022-28.444-142.222 0-39.822 5.689-73.956 17.067-108.089s28.444-68.267 45.511-96.711c-11.378-11.378-22.756-22.756-34.133-28.444l-176.356-85.333zM1484.8 328.533c17.067-11.378 28.444-22.756 28.444-45.511v-199.111c0-11.378-5.689-28.444-11.378-34.133-5.689-11.378-17.067-11.378-28.444-11.378h-176.356v210.489c0 28.444-5.689 51.2-22.756 73.956-11.378 22.756-34.133 39.822-56.889 51.2l-164.978 73.956c-17.067 11.378-28.444 22.756-45.511 39.822 17.067 28.444 34.133 62.578 45.511 96.711s17.067 68.267 17.067 108.089c0 22.756 0 51.2-5.689 73.956s-11.378 45.511-22.756 68.267c17.067 11.378 28.444 17.067 45.511 22.756s34.133 11.378 51.2 11.378c28.444 0 51.2-5.689 73.956-17.067s45.511-28.444 62.578-45.511c17.067-17.067 28.444-45.511 39.822-68.267 11.378-28.444 17.067-56.889 17.067-85.333 0-39.822-11.378-79.644-28.444-113.778s-45.511-62.578-73.956-79.644l256-130.844z" />
<glyph unicode="&#xe902;" glyph-name="icon-academic" horiz-adv-x="1257" d="M1195.442 636.324c0 0 4.655-4.655 4.655-4.655s0 0 0 0c0-4.655 4.655-9.309 4.655-9.309 0-4.655 0-9.309-4.655-9.309 0 0 0 0 0 0 0-4.655-4.655-4.655-4.655-4.655-4.655 0-4.655-4.655-9.309-4.655l-567.855-269.964c-9.309-4.655-18.618-4.655-27.927 0l-572.509 260.655c-23.273 9.309-23.273 41.891 0 51.2l572.509 269.964c9.309 4.655 18.618 4.655 27.927 0l572.509-269.964c0-4.655 4.655-4.655 4.655-9.309zM1107.006 617.706l-502.691 237.382-502.691-237.382 502.691-237.382 502.691 237.382zM1111.661 613.052c0 13.964 13.964 27.927 32.582 27.927s32.582-13.964 32.582-27.927v-409.6c0-13.964-13.964-27.927-32.582-27.927s-32.582 13.964-32.582 27.927v409.6zM1004.606 101.052c0-13.964-13.964-27.927-32.582-27.927s-32.582 13.964-32.582 27.927v409.6c0 13.964 13.964 27.927 32.582 27.927s32.582-13.964 32.582-27.927v-409.6zM204.024 510.652c0 13.964 13.964 27.927 32.582 27.927s32.582-13.964 32.582-27.927v-409.6c0-13.964-13.964-27.927-32.582-27.927s-32.582 13.964-32.582 27.927v409.6zM217.988 77.779c-13.964 9.309-18.618 27.927-4.655 41.891s32.582 13.964 46.545 4.655c0 0 0 0 0 0s4.655 0 4.655-4.655 9.309-4.655 18.618-9.309c18.618-9.309 46.545-23.273 69.818-32.582 79.127-32.582 162.909-51.2 256-51.2s176.873 18.618 256 51.2c27.927 9.309 51.2 23.273 69.818 32.582 9.309 4.655 13.964 9.309 18.618 9.309 0 0 4.655 0 4.655 4.655 0 0 0 0 0 0 13.964 9.309 32.582 9.309 46.545-4.655s9.309-32.582-4.655-41.891c0 0-4.655-4.655-9.309-4.655-4.655-4.655-13.964-9.309-23.273-13.964-23.273-13.964-51.2-23.273-79.127-37.236-83.782-32.582-176.873-55.855-279.273-55.855s-195.491 18.618-279.273 55.855c-27.927 13.964-55.855 23.273-79.127 37.236-9.309 4.655-13.964 9.309-23.273 13.964-4.655 0-9.309 4.655-9.309 4.655zM1144.242 128.979c-41.891 0-79.127 32.582-79.127 69.818s37.236 69.818 79.127 69.818 79.127-32.582 79.127-69.818c0-37.236-37.236-69.818-79.127-69.818zM1144.242 184.833c9.309 0 13.964 4.655 13.964 13.964s-9.309 13.964-13.964 13.964c-9.309 0-13.964-4.655-13.964-13.964-4.655-4.655 4.655-13.964 13.964-13.964z" />
</font></defs></svg>